{
    "effect": {
        "name": "rainbow",
        "delta_hue": 15,
        "rate": 2
    }
}
{
    "effect": {
        "name": "fire",
        "cooling": 1,
        "sparking": 80,
        "forward": true
    }
}
{
    "effect": {
        "name": "twinkle"
    }
}
{
    "effect": {
        "name": "applause",
        "fade_rate": 10
    }
}